^C:\USERS\JOSKN\ONEDRIVE\SURFACE BOOK BACKUP\DOCUMENTS\OGOPRG-PRACTICUM\OPDRACHT1\OGOPRG\OPDRACHT1\X64\DEBUG\OPDRACHT2E_F.OBJ|C:\USERS\JOSKN\ONEDRIVE\SURFACE BOOK BACKUP\DOCUMENTS\OGOPRG-PRACTICUM\OPDRACHT1\OGOPRG\OPDRACHT1\X64\DEBUG\TIJDSDUUR.OBJ
C:\PROGRAM FILES (X86)\WINDOWS KITS\10\LIB\10.0.18362.0\UM\X64\KERNEL32.LIB
C:\PROGRAM FILES (X86)\WINDOWS KITS\10\LIB\10.0.18362.0\UM\X64\USER32.LIB
C:\PROGRAM FILES (X86)\WINDOWS KITS\10\LIB\10.0.18362.0\UM\X64\GDI32.LIB
C:\PROGRAM FILES (X86)\WINDOWS KITS\10\LIB\10.0.18362.0\UM\X64\WINSPOOL.LIB
C:\PROGRAM FILES (X86)\WINDOWS KITS\10\LIB\10.0.18362.0\UM\X64\COMDLG32.LIB
C:\PROGRAM FILES (X86)\WINDOWS KITS\10\LIB\10.0.18362.0\UM\X64\ADVAPI32.LIB
C:\PROGRAM FILES (X86)\WINDOWS KITS\10\LIB\10.0.18362.0\UM\X64\SHELL32.LIB
C:\PROGRAM FILES (X86)\WINDOWS KITS\10\LIB\10.0.18362.0\UM\X64\OLE32.LIB
C:\PROGRAM FILES (X86)\WINDOWS KITS\10\LIB\10.0.18362.0\UM\X64\OLEAUT32.LIB
C:\PROGRAM FILES (X86)\WINDOWS KITS\10\LIB\10.0.18362.0\UM\X64\UUID.LIB
C:\PROGRAM FILES (X86)\WINDOWS KITS\10\LIB\10.0.18362.0\UM\X64\ODBC32.LIB
C:\PROGRAM FILES (X86)\WINDOWS KITS\10\LIB\10.0.18362.0\UM\X64\ODBCCP32.LIB
C:\USERS\JOSKN\ONEDRIVE\SURFACE BOOK BACKUP\DOCUMENTS\OGOPRG-PRACTICUM\OPDRACHT1\OGOPRG\OPDRACHT1\X64\DEBUG\OPDRACHT2E_F.OBJ
C:\USERS\JOSKN\ONEDRIVE\SURFACE BOOK BACKUP\DOCUMENTS\OGOPRG-PRACTICUM\OPDRACHT1\OGOPRG\OPDRACHT1\X64\DEBUG\TIJDSDUUR.OBJ
C:\WINDOWS\SYSTEM32\TZRES.DLL
C:\WINDOWS\GLOBALIZATION\SORTING\SORTDEFAULT.NLS
C:\PROGRAM FILES (X86)\MICROSOFT VISUAL STUDIO\2019\COMMUNITY\VC\TOOLS\MSVC\14.28.29910\LIB\X64\MSVCPRTD.LIB
C:\PROGRAM FILES (X86)\MICROSOFT VISUAL STUDIO\2019\COMMUNITY\VC\TOOLS\MSVC\14.28.29910\LIB\X64\MSVCRTD.LIB
C:\PROGRAM FILES (X86)\MICROSOFT VISUAL STUDIO\2019\COMMUNITY\VC\TOOLS\MSVC\14.28.29910\LIB\X64\OLDNAMES.LIB
C:\PROGRAM FILES (X86)\MICROSOFT VISUAL STUDIO\2019\COMMUNITY\VC\TOOLS\MSVC\14.28.29910\LIB\X64\VCRUNTIMED.LIB
C:\PROGRAM FILES (X86)\WINDOWS KITS\10\LIB\10.0.18362.0\UCRT\X64\UCRTD.LIB
C:\PROGRAM FILES (X86)\MICROSOFT VISUAL STUDIO\2019\COMMUNITY\VC\TOOLS\MSVC\14.28.29910\BIN\HOSTX86\X64\CVTRES.EXE
C:\PROGRAM FILES (X86)\MICROSOFT VISUAL STUDIO\2019\COMMUNITY\VC\TOOLS\MSVC\14.28.29910\BIN\HOSTX86\X64\MSPDBSRV.EXE
